{
    "_id": "5f35444fcb45615e74bd48d5",
    "nome": "Pers 4 new K name",
    "vida": 10,
    "ataque": 500,
    "defesa": 301,
    "sexo": "FluidGender",
    "registradoPor": "Fulano",
    "date": "2020-08-15T17:34:04.439Z",
    "__v": 0
}